[gd_scene load_steps=4 format=2]

[ext_resource path="res://tiles/speed/speed.glb" type="PackedScene" id=1]
[ext_resource path="res://tiles/tile_shape.tscn" type="PackedScene" id=2]
[ext_resource path="res://tiles/speed/GrowthTile.cs" type="Script" id=3]

[node name="GrowthTile" type="StaticBody"]
collision_layer = 3
collision_mask = 3
script = ExtResource( 3 )

[node name="Shape" parent="." instance=ExtResource( 2 )]

[node name="CropRoot" type="Position3D" parent="."]
transform = Transform( 1, 0, 0, 0, 1, 0, 0, 0, 1, 0, 0.195138, 0 )

[node name="speed" parent="." instance=ExtResource( 1 )]
transform = Transform( 0.577, 0, 0, 0, 1, 0, 0, 0, 0.577, 0, 0, 0 )
