[gd_scene load_steps=3 format=2]

[ext_resource path="res://tiles/highlight/tile_highlight.glb" type="PackedScene" id=1]
[ext_resource path="res://tiles/highlight/TileHighlight.cs" type="Script" id=2]

[node name="Spatial" type="Spatial"]
script = ExtResource( 2 )

[node name="tile_highlight" parent="." instance=ExtResource( 1 )]
transform = Transform( 1, 0, 0, 0, 1, 0, 0, 0, 1, 0, 0.0532248, 0 )
