[gd_resource type="DynamicFont" load_steps=2 format=2]

[ext_resource path="res://ui/fonts/CreteRound-Regular.ttf" type="DynamicFontData" id=1]

[resource]
size = 72
outline_size = 1
outline_color = Color( 0, 0, 0, 1 )
use_mipmaps = true
use_filter = true
font_data = ExtResource( 1 )
