[gd_scene load_steps=4 format=2]

[ext_resource path="res://tiles/rock/stone_rocks.glb" type="PackedScene" id=1]
[ext_resource path="res://tiles/tile_shape.tscn" type="PackedScene" id=2]
[ext_resource path="res://tiles/rock/RockTile.cs" type="Script" id=3]

[node name="RockTile" type="StaticBody"]
script = ExtResource( 3 )

[node name="Model" parent="." instance=ExtResource( 1 )]
transform = Transform( 0.577, 0, 0, 0, 1, 0, 0, 0, 0.577, 0, 0, 0 )

[node name="Shape" parent="." instance=ExtResource( 2 )]

[editable path="Model"]
