[gd_scene load_steps=4 format=2]

[ext_resource path="res://ui/fonts/medium.tres" type="DynamicFont" id=1]
[ext_resource path="res://ui/hud/DiceCounter.cs" type="Script" id=2]
[ext_resource path="res://ui/hud/d4.png" type="Texture" id=3]

[node name="DiceCounter" type="HBoxContainer"]
margin_right = 61.0
margin_bottom = 42.0
alignment = 2
script = ExtResource( 2 )

[node name="Count" type="Label" parent="."]
margin_top = 3.0
margin_right = 36.0
margin_bottom = 45.0
custom_fonts/font = ExtResource( 1 )
text = "00"

[node name="TempLabel" type="Label" parent="."]
visible = false
margin_left = 40.0
margin_right = 57.0
margin_bottom = 42.0
custom_colors/font_color = Color( 0.611765, 0.611765, 0.611765, 1 )
custom_fonts/font = ExtResource( 1 )
text = "4"

[node name="Icon" type="TextureRect" parent="."]
margin_left = 40.0
margin_right = 88.0
margin_bottom = 48.0
rect_min_size = Vector2( 48, 48 )
texture = ExtResource( 3 )
expand = true
