[gd_scene load_steps=3 format=2]

[ext_resource path="res://base/Hitmarker.cs" type="Script" id=1]
[ext_resource path="res://ui/fonts/medium.tres" type="DynamicFont" id=2]

[node name="Hitmarker" type="Spatial"]
script = ExtResource( 1 )

[node name="Sprite3d" type="Sprite3D" parent="."]
modulate = Color( 1.5, 1.5, 1.5, 1 )

[node name="Viewport" type="Viewport" parent="."]
size = Vector2( 64, 64 )
transparent_bg = true
disable_3d = true
usage = 1
render_target_v_flip = true
render_target_update_mode = 0
gui_disable_input = true

[node name="Label" type="Label" parent="Viewport"]
anchor_right = 1.0
anchor_bottom = 1.0
margin_right = 40.0
margin_bottom = 42.0
custom_fonts/font = ExtResource( 2 )
text = "12"
